Sample Name,Sample 2664 11
Acq Time,03/11/20 2:36:25 PM
Method Name,Sasol Final Short
Last Modified,03/12/20 3:55:04 PM
ReportForm Time,03/12/20 4:07:57 PM

External Standard Reprot
Peak,RetTime,Name,RF,Area,Type,Conc,Grp
2,2.123,1-Hexene,36.074,0.077,FF,0.002,
3,2.168,Hexane,114.187,0.243,LF,0.002,
21,7.754,Oxygen/Argon,0.086,863.344,BB,10026.371,
1,1.862,Hydrogen,3.748,0.000,ND,0.000,
4,2.683,1-Heptene,36.074,0.000,ND,0.000,
5,2.700,CO2,0.126,0.000,ND,0.000,
6,2.752,Heptane,36.074,0.000,ND,0.000,
7,2.888,Methane,7.161,0.000,ND,0.000,
8,3.138,Ethane,13.905,0.000,ND,0.000,
9,3.395,Ethylene,14.276,0.000,ND,0.000,
10,3.796,1-Octene,36.074,0.000,ND,0.000,
11,3.939,Octane,36.074,0.000,ND,0.000,
12,4.102,Propane,19.482,0.000,ND,0.000,
13,5.352,CycloPropane,20.000,0.000,ND,0.000,
14,5.450,Propylene,19.319,0.000,ND,0.000,
15,5.913,Nonene,36.074,0.000,ND,0.000,
16,6.175,Nonane,36.074,0.000,ND,0.000,
17,6.261,Acetylene,16.748,0.000,ND,0.000,
18,6.468,i-Butane,26.831,0.000,ND,0.000,
19,6.845,Propadiene,17.938,0.000,ND,0.000,
20,7.000,n-Butane,27.380,0.000,ND,0.000,
22,8.450,Nitrogen,0.097,0.000,ND,0.000,
23,8.716,Decene,36.074,0.000,ND,0.000,
24,9.018,Decane,36.074,0.000,ND,0.000,
25,9.119,t-2-Butene,26.432,0.000,ND,0.000,
26,9.283,1-Butene,27.123,0.000,ND,0.000,
27,9.685,Isobutylene,26.623,0.000,ND,0.000,
28,10.126,c-2-Butene,26.757,0.000,ND,0.000,
29,10.200,Carbon Monoxide,0.057,0.000,ND,0.000,
30,10.318,Neopentane,20.000,0.000,ND,0.000,
31,11.269,i-Pentane,3.070,0.000,ND,0.000,
32,11.500,Methylacetylene,6.562,0.000,ND,0.000,
33,11.687,n-Pentane,42.987,0.000,ND,0.000,
34,11.768,Undecene,36.074,0.000,ND,0.000,
35,12.008,1,3-Butadiene,27.392,0.000,ND,0.000,
36,12.113,Undecane,36.074,0.000,ND,0.000,
37,13.289,1-Pentene,32.901,0.000,ND,0.000,
38,14.643,Dodecene,36.074,0.000,ND,0.000,
39,14.967,Dodecane,36.074,0.000,ND,0.000,
42,17.204,Tridecene,36.074,0.000,ND,0.000,
43,17.502,Tridecane,36.074,0.000,ND,0.000,
44,19.507,Tetradecene,36.074,0.000,ND,0.000,
45,19.769,Tetradecane,36.074,0.000,ND,0.000,
46,21.600,Pentadecene,36.074,0.000,ND,0.000,
47,21.836,Pentadecane,36.074,0.000,ND,0.000,
48,23.500,Hexadecene,36.074,0.000,ND,0.000,
49,23.754,Hexadecane,36.074,0.000,ND,0.000,
50,25.563,Heptadecane,36.074,0.000,ND,0.000,
51,27.160,Octadecne,36.074,0.000,ND,0.000,
52,28.700,Nonadecane,36.074,0.000,ND,0.000,
53,30.220,Eicosane,36.074,0.000,ND,0.000,


Peak Sum Report
Peak Sum Name,StartRT,StopRt,Area,RF,
C10s5.100,6.900,0.000, 2000.000,0.000
