Sample Name,Sample 2673 12
Acq Time,3/12/2020 2:01:12 PM
Method Name,Sasol Final Short
Last Modified,3/27/2020 2:48:16 PM
ReportForm Time,3/27/2020 2:48:18 PM

External Standard Reprot
Peak,RetTime,Name,RF,Area,Type,Conc,Grp
1,1.757,Hydrogen,2.379,0.011,BB,0.005,
5,2.783,CO2,0.000,0.112,BB,0.000,
21,7.817,Oxygen/Argon,0.000,17.811,MF,0.000,
22,8.276,Nitrogen,0.000,67.382,LF,0.000,
2,2.125,1-Hexene,0.000,0.000,ND,0.000,
3,2.159,Hexane,0.000,0.000,ND,0.000,
4,2.683,1-Heptene,0.000,0.000,ND,0.000,
6,2.752,Heptane,0.000,0.000,ND,0.000,
7,2.888,Methane,0.000,0.000,ND,0.000,
8,3.138,Ethane,0.000,0.000,ND,0.000,
9,3.395,Ethylene,0.000,0.000,ND,0.000,
10,3.796,1-Octene,0.000,0.000,ND,0.000,
11,3.939,Octane,0.000,0.000,ND,0.000,
12,4.102,Propane,0.000,0.000,ND,0.000,
13,5.352,CycloPropane,0.000,0.000,ND,0.000,
14,5.450,Propylene,0.000,0.000,ND,0.000,
15,5.913,Nonene,0.000,0.000,ND,0.000,
16,6.175,Nonane,0.000,0.000,ND,0.000,
17,6.261,Acetylene,0.000,0.000,ND,0.000,
18,6.468,i-Butane,0.000,0.000,ND,0.000,
19,6.845,Propadiene,0.000,0.000,ND,0.000,
20,7.000,n-Butane,0.000,0.000,ND,0.000,
23,8.716,Decene,0.000,0.000,ND,0.000,
24,9.018,Decane,0.000,0.000,ND,0.000,
25,9.119,t-2-Butene,0.000,0.000,ND,0.000,
26,9.283,1-Butene,0.000,0.000,ND,0.000,
27,9.685,Isobutylene,0.000,0.000,ND,0.000,
28,10.126,c-2-Butene,0.000,0.000,ND,0.000,
29,10.200,Carbon Monoxide,0.000,0.000,ND,0.000,
30,10.318,Neopentane,0.000,0.000,ND,0.000,
31,11.269,i-Pentane,0.000,0.000,ND,0.000,
32,11.500,Methylacetylene,0.000,0.000,ND,0.000,
33,11.687,n-Pentane,0.000,0.000,ND,0.000,
34,11.768,Undecene,0.000,0.000,ND,0.000,
35,12.008,1,3-Butadiene,0.000,0.000,ND,0.000,
36,12.113,Undecane,0.000,0.000,ND,0.000,
37,13.289,1-Pentene,0.000,0.000,ND,0.000,
38,14.643,Dodecene,0.000,0.000,ND,0.000,
39,14.967,Dodecane,0.000,0.000,ND,0.000,
42,17.204,Tridecene,0.000,0.000,ND,0.000,
43,17.502,Tridecane,0.000,0.000,ND,0.000,
44,19.507,Tetradecene,0.000,0.000,ND,0.000,
45,19.769,Tetradecane,0.000,0.000,ND,0.000,
46,21.600,Pentadecene,0.000,0.000,ND,0.000,
47,21.836,Pentadecane,0.000,0.000,ND,0.000,
48,23.500,Hexadecene,0.000,0.000,ND,0.000,
49,23.754,Hexadecane,0.000,0.000,ND,0.000,
50,25.563,Heptadecane,0.000,0.000,ND,0.000,
51,27.160,Octadecne,0.000,0.000,ND,0.000,
52,28.700,Nonadecane,0.000,0.000,ND,0.000,
53,30.220,Eicosane,0.000,0.000,ND,0.000,


Peak Sum Report
Peak Sum Name,StartRT,StopRt,Area,RF,
C10s5.100,6.900,0.000, 2000.000,0.000
